{
    "/assets/dashboard/js/app.js": "/assets/dashboard/js/app.js",
    "/assets/dashboard/css/app.css": "/assets/dashboard/css/app.css",
    "/assets/css/bootstrap.css": "/assets/css/bootstrap.css",
    "/assets/css/main.css": "/assets/css/main.css",
    "/assets/login/css/main.all.css": "/assets/login/css/main.all.css",
    "/assets/login/js/main.all.js": "/assets/login/js/main.all.js",
    "/assets/login/js/tilt.jquery.min.js": "/assets/login/js/tilt.jquery.min.js",
    "/assets/js/jquery.min.js": "/assets/js/jquery.min.js",
    "/assets/js/bootstrap.min.js": "/assets/js/bootstrap.min.js",
    "/assets/js/jquery.easing.min.js": "/assets/js/jquery.easing.min.js",
    "/assets/js/youtube.api.js": "/assets/js/youtube.api.js",
    "/assets/js/main.js": "/assets/js/main.js"
}